002400000480000094000000060200000024000052534131000400000100010077aeb169b5610e
df362632733fb00c5cdf5b8544051ad0e927ddd54b5b365ed7b1c6d5c58a321d8d62748d39e49c
d7a5ff5651328d4d1d9eea7edbd3a4421cd1e539b8b64d6844b3bbd4c3ea1030201651cb69afd9
95615f6d8a74bf884275307681ca5bc2fd00491f8a9e6627d5ad36a44f28cf18597fbc8b3003ff
92770ed2


[assembly: InternalsVisibleTo("***, PublicKey=002400000480000094000000060200000024000052534131000400000100010077aeb169b5610e" +
"df362632733fb00c5cdf5b8544051ad0e927ddd54b5b365ed7b1c6d5c58a321d8d62748d39e49c" +
"d7a5ff5651328d4d1d9eea7edbd3a4421cd1e539b8b64d6844b3bbd4c3ea1030201651cb69afd9" +
"95615f6d8a74bf884275307681ca5bc2fd00491f8a9e6627d5ad36a44f28cf18597fbc8b3003ff" +
"92770ed2")]